The system is: Linux - 4.4.0-81-generic - x86_64
Compiling the C compiler identification source file "CMakeCCompilerId.c" succeeded.
Compiler: /opt/poky/2.0.2/sysroots/x86_64-pokysdk-linux/usr/bin/arm-poky-linux-gnueabi/arm-poky-linux-gnueabi-gcc -march=armv7-a;-marm;-mthumb-interwork;-mfloat-abi=hard;-mtune=cortex-a7;--sysroot=/opt/poky/2.0.2/sysroots/cortexa7hf-vfp-vfpv4-d16-poky-linux-gnueabi
Build flags: ;-O2;-pipe;-g;-feliminate-unused-debug-types
Id flags: 

The output was:
0


Compilation of the C compiler identification source "CMakeCCompilerId.c" produced "a.out"

The C compiler identification is GNU, found in "/media/sf_vmshare/opc-ua/MemoryTestServer/build_LCES2/CMakeFiles/3.5.1/CompilerIdC/a.out"

Determining if the C compiler works passed with the following output:
Change Dir: /media/sf_vmshare/opc-ua/MemoryTestServer/build_LCES2/CMakeFiles/CMakeTmp

Run Build Command:"/usr/bin/make" "cmTC_99e86/fast"
make: Warning: File 'Makefile' has modification time 0,22 s in the future
/usr/bin/make -f CMakeFiles/cmTC_99e86.dir/build.make CMakeFiles/cmTC_99e86.dir/build
make[1]: Entering directory '/media/sf_vmshare/opc-ua/MemoryTestServer/build_LCES2/CMakeFiles/CMakeTmp'
make[1]: Warning: File 'CMakeFiles/cmTC_99e86.dir/flags.make' has modification time 0,19 s in the future
Building C object CMakeFiles/cmTC_99e86.dir/testCCompiler.c.o
/opt/poky/2.0.2/sysroots/x86_64-pokysdk-linux/usr/bin/arm-poky-linux-gnueabi/arm-poky-linux-gnueabi-gcc   -march=armv7-a -marm  -mthumb-interwork -mfloat-abi=hard -mtune=cortex-a7 --sysroot=/opt/poky/2.0.2/sysroots/cortexa7hf-vfp-vfpv4-d16-poky-linux-gnueabi   -O2 -pipe -g -feliminate-unused-debug-types     -o CMakeFiles/cmTC_99e86.dir/testCCompiler.c.o   -c /media/sf_vmshare/opc-ua/MemoryTestServer/build_LCES2/CMakeFiles/CMakeTmp/testCCompiler.c
Linking C executable cmTC_99e86
/usr/bin/cmake -E cmake_link_script CMakeFiles/cmTC_99e86.dir/link.txt --verbose=1
/opt/poky/2.0.2/sysroots/x86_64-pokysdk-linux/usr/bin/arm-poky-linux-gnueabi/arm-poky-linux-gnueabi-gcc   -march=armv7-a -marm  -mthumb-interwork -mfloat-abi=hard -mtune=cortex-a7 --sysroot=/opt/poky/2.0.2/sysroots/cortexa7hf-vfp-vfpv4-d16-poky-linux-gnueabi  -O2 -pipe -g -feliminate-unused-debug-types     -Wl,-O1 -Wl,--hash-style=gnu -Wl,--as-needed  CMakeFiles/cmTC_99e86.dir/testCCompiler.c.o  -o cmTC_99e86 -rdynamic 
make[1]: warning:  Clock skew detected.  Your build may be incomplete.
make[1]: Leaving directory '/media/sf_vmshare/opc-ua/MemoryTestServer/build_LCES2/CMakeFiles/CMakeTmp'
make: warning:  Clock skew detected.  Your build may be incomplete.


Detecting C compiler ABI info compiled with the following output:
Change Dir: /media/sf_vmshare/opc-ua/MemoryTestServer/build_LCES2/CMakeFiles/CMakeTmp

Run Build Command:"/usr/bin/make" "cmTC_a3a89/fast"
make: Warning: File 'Makefile' has modification time 0,22 s in the future
/usr/bin/make -f CMakeFiles/cmTC_a3a89.dir/build.make CMakeFiles/cmTC_a3a89.dir/build
make[1]: Entering directory '/media/sf_vmshare/opc-ua/MemoryTestServer/build_LCES2/CMakeFiles/CMakeTmp'
make[1]: Warning: File 'CMakeFiles/cmTC_a3a89.dir/flags.make' has modification time 0,2 s in the future
Building C object CMakeFiles/cmTC_a3a89.dir/CMakeCCompilerABI.c.o
/opt/poky/2.0.2/sysroots/x86_64-pokysdk-linux/usr/bin/arm-poky-linux-gnueabi/arm-poky-linux-gnueabi-gcc   -march=armv7-a -marm  -mthumb-interwork -mfloat-abi=hard -mtune=cortex-a7 --sysroot=/opt/poky/2.0.2/sysroots/cortexa7hf-vfp-vfpv4-d16-poky-linux-gnueabi   -O2 -pipe -g -feliminate-unused-debug-types     -o CMakeFiles/cmTC_a3a89.dir/CMakeCCompilerABI.c.o   -c /usr/share/cmake-3.5/Modules/CMakeCCompilerABI.c
Linking C executable cmTC_a3a89
/usr/bin/cmake -E cmake_link_script CMakeFiles/cmTC_a3a89.dir/link.txt --verbose=1
/opt/poky/2.0.2/sysroots/x86_64-pokysdk-linux/usr/bin/arm-poky-linux-gnueabi/arm-poky-linux-gnueabi-gcc   -march=armv7-a -marm  -mthumb-interwork -mfloat-abi=hard -mtune=cortex-a7 --sysroot=/opt/poky/2.0.2/sysroots/cortexa7hf-vfp-vfpv4-d16-poky-linux-gnueabi  -O2 -pipe -g -feliminate-unused-debug-types     -Wl,-O1 -Wl,--hash-style=gnu -Wl,--as-needed -v CMakeFiles/cmTC_a3a89.dir/CMakeCCompilerABI.c.o  -o cmTC_a3a89 -rdynamic  
Using built-in specs.
COLLECT_GCC=/opt/poky/2.0.2/sysroots/x86_64-pokysdk-linux/usr/bin/arm-poky-linux-gnueabi/arm-poky-linux-gnueabi-gcc
COLLECT_LTO_WRAPPER=/opt/poky/2.0.2/sysroots/x86_64-pokysdk-linux/usr/libexec/arm-poky-linux-gnueabi/gcc/arm-poky-linux-gnueabi/4.9.3/lto-wrapper
Target: arm-poky-linux-gnueabi
Configured with: /home/sesa357887/lces-2/build/tmp/work-shared/gcc-4.9.3-r0/gcc-4.9.3/configure --build=x86_64-linux --host=x86_64-pokysdk-linux --target=arm-poky-linux-gnueabi --prefix=/opt/poky/2.0.2/sysroots/x86_64-pokysdk-linux/usr --exec_prefix=/opt/poky/2.0.2/sysroots/x86_64-pokysdk-linux/usr --bindir=/opt/poky/2.0.2/sysroots/x86_64-pokysdk-linux/usr/bin/arm-poky-linux-gnueabi --sbindir=/opt/poky/2.0.2/sysroots/x86_64-pokysdk-linux/usr/bin/arm-poky-linux-gnueabi --libexecdir=/opt/poky/2.0.2/sysroots/x86_64-pokysdk-linux/usr/libexec/arm-poky-linux-gnueabi --datadir=/opt/poky/2.0.2/sysroots/x86_64-pokysdk-linux/usr/share --sysconfdir=/opt/poky/2.0.2/sysroots/x86_64-pokysdk-linux/etc --sharedstatedir=/opt/poky/2.0.2/sysroots/x86_64-pokysdk-linux/com --localstatedir=/opt/poky/2.0.2/sysroots/x86_64-pokysdk-linux/var --libdir=/opt/poky/2.0.2/sysroots/x86_64-pokysdk-linux/usr/lib/arm-poky-linux-gnueabi --includedir=/opt/poky/2.0.2/sysroots/x86_64-pokysdk-linux/usr/include --oldincludedir=/opt/poky/2.0.2/sysroots/x86_64-pokysdk-linux/usr/include --infodir=/opt/poky/2.0.2/sysroots/x86_64-pokysdk-linux/usr/share/info --mandir=/opt/poky/2.0.2/sysroots/x86_64-pokysdk-linux/usr/share/man --disable-silent-rules --disable-dependency-tracking --with-libtool-sysroot=/home/sesa357887/lces-2/build/tmp/sysroots/x86_64-nativesdk-pokysdk-linux --with-gnu-ld --enable-shared --enable-languages=c,c++ --enable-threads=posix --enable-multilib --enable-c99 --enable-long-long --enable-symvers=gnu --enable-libstdcxx-pch --program-prefix=arm-poky-linux-gnueabi- --without-local-prefix --enable-target-optspace --enable-lto --enable-libssp --disable-bootstrap --disable-libmudflap --with-system-zlib --with-linker-hash-style=gnu --enable-linker-build-id --with-ppl=no --with-cloog=no --enable-checking=release --enable-cheaders=c_global --with-gxx-include-dir=/not/exist/usr/include/c++/4.9.3 --with-build-time-tools=/home/sesa357887/lces-2/build/tmp/sysroots/x86_64-linux/usr/arm-poky-linux-gnueabi/bin --with-sysroot=/not/exist --with-build-sysroot=/home/sesa357887/lces-2/build/tmp/sysroots/rzn1-snarc --enable-poison-system-directories --with-mpfr=/home/sesa357887/lces-2/build/tmp/sysroots/x86_64-nativesdk-pokysdk-linux --with-mpc=/home/sesa357887/lces-2/build/tmp/sysroots/x86_64-nativesdk-pokysdk-linux --enable-nls --with-arch=armv7-a
Thread model: posix
gcc version 4.9.3 (GCC) 
COMPILER_PATH=/opt/poky/2.0.2/sysroots/x86_64-pokysdk-linux/usr/libexec/arm-poky-linux-gnueabi/gcc/arm-poky-linux-gnueabi/4.9.3/:/opt/poky/2.0.2/sysroots/x86_64-pokysdk-linux/usr/libexec/arm-poky-linux-gnueabi/gcc/arm-poky-linux-gnueabi/4.9.3/:/opt/poky/2.0.2/sysroots/x86_64-pokysdk-linux/usr/libexec/arm-poky-linux-gnueabi/gcc/arm-poky-linux-gnueabi/:/opt/poky/2.0.2/sysroots/x86_64-pokysdk-linux/usr/lib/arm-poky-linux-gnueabi/gcc/arm-poky-linux-gnueabi/4.9.3/:/opt/poky/2.0.2/sysroots/x86_64-pokysdk-linux/usr/lib/arm-poky-linux-gnueabi/gcc/arm-poky-linux-gnueabi/
LIBRARY_PATH=/opt/poky/2.0.2/sysroots/x86_64-pokysdk-linux/usr/lib/arm-poky-linux-gnueabi/gcc/arm-poky-linux-gnueabi/4.9.3/:/opt/poky/2.0.2/sysroots/cortexa7hf-vfp-vfpv4-d16-poky-linux-gnueabi/lib/:/opt/poky/2.0.2/sysroots/cortexa7hf-vfp-vfpv4-d16-poky-linux-gnueabi/usr/lib/arm-poky-linux-gnueabi/4.9.3/:/opt/poky/2.0.2/sysroots/cortexa7hf-vfp-vfpv4-d16-poky-linux-gnueabi/usr/lib/
COLLECT_GCC_OPTIONS='--sysroot=/opt/poky/2.0.2/sysroots/cortexa7hf-vfp-vfpv4-d16-poky-linux-gnueabi' '-march=armv7-a' '-marm' '-mthumb-interwork' '-mfloat-abi=hard' '-mtune=cortex-a7' '-O2' '-pipe' '-g' '-feliminate-unused-debug-types' '-v' '-o' 'cmTC_a3a89' '-rdynamic' '-mtls-dialect=gnu'
 /opt/poky/2.0.2/sysroots/x86_64-pokysdk-linux/usr/libexec/arm-poky-linux-gnueabi/gcc/arm-poky-linux-gnueabi/4.9.3/collect2 -plugin /opt/poky/2.0.2/sysroots/x86_64-pokysdk-linux/usr/libexec/arm-poky-linux-gnueabi/gcc/arm-poky-linux-gnueabi/4.9.3/liblto_plugin.so -plugin-opt=/opt/poky/2.0.2/sysroots/x86_64-pokysdk-linux/usr/libexec/arm-poky-linux-gnueabi/gcc/arm-poky-linux-gnueabi/4.9.3/lto-wrapper -plugin-opt=-fresolution=/tmp/ccF0G7WA.res -plugin-opt=-pass-through=-lgcc -plugin-opt=-pass-through=-lgcc_s -plugin-opt=-pass-through=-lc -plugin-opt=-pass-through=-lgcc -plugin-opt=-pass-through=-lgcc_s --sysroot=/opt/poky/2.0.2/sysroots/cortexa7hf-vfp-vfpv4-d16-poky-linux-gnueabi --build-id --eh-frame-hdr --hash-style=gnu -export-dynamic -dynamic-linker /lib/ld-linux-armhf.so.3 -X -m armelf_linux_eabi -o cmTC_a3a89 /opt/poky/2.0.2/sysroots/cortexa7hf-vfp-vfpv4-d16-poky-linux-gnueabi/usr/lib/crt1.o /opt/poky/2.0.2/sysroots/cortexa7hf-vfp-vfpv4-d16-poky-linux-gnueabi/usr/lib/crti.o /opt/poky/2.0.2/sysroots/cortexa7hf-vfp-vfpv4-d16-poky-linux-gnueabi/usr/lib/arm-poky-linux-gnueabi/4.9.3/crtbegin.o -L/opt/poky/2.0.2/sysroots/x86_64-pokysdk-linux/usr/lib/arm-poky-linux-gnueabi/gcc/arm-poky-linux-gnueabi/4.9.3 -L/opt/poky/2.0.2/sysroots/cortexa7hf-vfp-vfpv4-d16-poky-linux-gnueabi/lib -L/opt/poky/2.0.2/sysroots/cortexa7hf-vfp-vfpv4-d16-poky-linux-gnueabi/usr/lib/arm-poky-linux-gnueabi/4.9.3 -L/opt/poky/2.0.2/sysroots/cortexa7hf-vfp-vfpv4-d16-poky-linux-gnueabi/usr/lib -O1 --hash-style=gnu --as-needed CMakeFiles/cmTC_a3a89.dir/CMakeCCompilerABI.c.o -lgcc --as-needed -lgcc_s --no-as-needed -lc -lgcc --as-needed -lgcc_s --no-as-needed /opt/poky/2.0.2/sysroots/cortexa7hf-vfp-vfpv4-d16-poky-linux-gnueabi/usr/lib/arm-poky-linux-gnueabi/4.9.3/crtend.o /opt/poky/2.0.2/sysroots/cortexa7hf-vfp-vfpv4-d16-poky-linux-gnueabi/usr/lib/crtn.o
make[1]: warning:  Clock skew detected.  Your build may be incomplete.
make[1]: Leaving directory '/media/sf_vmshare/opc-ua/MemoryTestServer/build_LCES2/CMakeFiles/CMakeTmp'
make: warning:  Clock skew detected.  Your build may be incomplete.


Parsed C implicit link information from above output:
  link line regex: [^( *|.*[/\])(ld|([^/\]+-)?ld|collect2)[^/\]*( |$)]
  ignore line: [Change Dir: /media/sf_vmshare/opc-ua/MemoryTestServer/build_LCES2/CMakeFiles/CMakeTmp]
  ignore line: []
  ignore line: [Run Build Command:"/usr/bin/make" "cmTC_a3a89/fast"]
  ignore line: [make: Warning: File 'Makefile' has modification time 0,22 s in the future]
  ignore line: [/usr/bin/make -f CMakeFiles/cmTC_a3a89.dir/build.make CMakeFiles/cmTC_a3a89.dir/build]
  ignore line: [make[1]: Entering directory '/media/sf_vmshare/opc-ua/MemoryTestServer/build_LCES2/CMakeFiles/CMakeTmp']
  ignore line: [make[1]: Warning: File 'CMakeFiles/cmTC_a3a89.dir/flags.make' has modification time 0,2 s in the future]
  ignore line: [Building C object CMakeFiles/cmTC_a3a89.dir/CMakeCCompilerABI.c.o]
  ignore line: [/opt/poky/2.0.2/sysroots/x86_64-pokysdk-linux/usr/bin/arm-poky-linux-gnueabi/arm-poky-linux-gnueabi-gcc   -march=armv7-a -marm  -mthumb-interwork -mfloat-abi=hard -mtune=cortex-a7 --sysroot=/opt/poky/2.0.2/sysroots/cortexa7hf-vfp-vfpv4-d16-poky-linux-gnueabi   -O2 -pipe -g -feliminate-unused-debug-types     -o CMakeFiles/cmTC_a3a89.dir/CMakeCCompilerABI.c.o   -c /usr/share/cmake-3.5/Modules/CMakeCCompilerABI.c]
  ignore line: [Linking C executable cmTC_a3a89]
  ignore line: [/usr/bin/cmake -E cmake_link_script CMakeFiles/cmTC_a3a89.dir/link.txt --verbose=1]
  ignore line: [/opt/poky/2.0.2/sysroots/x86_64-pokysdk-linux/usr/bin/arm-poky-linux-gnueabi/arm-poky-linux-gnueabi-gcc   -march=armv7-a -marm  -mthumb-interwork -mfloat-abi=hard -mtune=cortex-a7 --sysroot=/opt/poky/2.0.2/sysroots/cortexa7hf-vfp-vfpv4-d16-poky-linux-gnueabi  -O2 -pipe -g -feliminate-unused-debug-types     -Wl,-O1 -Wl,--hash-style=gnu -Wl,--as-needed -v CMakeFiles/cmTC_a3a89.dir/CMakeCCompilerABI.c.o  -o cmTC_a3a89 -rdynamic  ]
  ignore line: [Using built-in specs.]
  ignore line: [COLLECT_GCC=/opt/poky/2.0.2/sysroots/x86_64-pokysdk-linux/usr/bin/arm-poky-linux-gnueabi/arm-poky-linux-gnueabi-gcc]
  ignore line: [COLLECT_LTO_WRAPPER=/opt/poky/2.0.2/sysroots/x86_64-pokysdk-linux/usr/libexec/arm-poky-linux-gnueabi/gcc/arm-poky-linux-gnueabi/4.9.3/lto-wrapper]
  ignore line: [Target: arm-poky-linux-gnueabi]
  ignore line: [Configured with: /home/sesa357887/lces-2/build/tmp/work-shared/gcc-4.9.3-r0/gcc-4.9.3/configure --build=x86_64-linux --host=x86_64-pokysdk-linux --target=arm-poky-linux-gnueabi --prefix=/opt/poky/2.0.2/sysroots/x86_64-pokysdk-linux/usr --exec_prefix=/opt/poky/2.0.2/sysroots/x86_64-pokysdk-linux/usr --bindir=/opt/poky/2.0.2/sysroots/x86_64-pokysdk-linux/usr/bin/arm-poky-linux-gnueabi --sbindir=/opt/poky/2.0.2/sysroots/x86_64-pokysdk-linux/usr/bin/arm-poky-linux-gnueabi --libexecdir=/opt/poky/2.0.2/sysroots/x86_64-pokysdk-linux/usr/libexec/arm-poky-linux-gnueabi --datadir=/opt/poky/2.0.2/sysroots/x86_64-pokysdk-linux/usr/share --sysconfdir=/opt/poky/2.0.2/sysroots/x86_64-pokysdk-linux/etc --sharedstatedir=/opt/poky/2.0.2/sysroots/x86_64-pokysdk-linux/com --localstatedir=/opt/poky/2.0.2/sysroots/x86_64-pokysdk-linux/var --libdir=/opt/poky/2.0.2/sysroots/x86_64-pokysdk-linux/usr/lib/arm-poky-linux-gnueabi --includedir=/opt/poky/2.0.2/sysroots/x86_64-pokysdk-linux/usr/include --oldincludedir=/opt/poky/2.0.2/sysroots/x86_64-pokysdk-linux/usr/include --infodir=/opt/poky/2.0.2/sysroots/x86_64-pokysdk-linux/usr/share/info --mandir=/opt/poky/2.0.2/sysroots/x86_64-pokysdk-linux/usr/share/man --disable-silent-rules --disable-dependency-tracking --with-libtool-sysroot=/home/sesa357887/lces-2/build/tmp/sysroots/x86_64-nativesdk-pokysdk-linux --with-gnu-ld --enable-shared --enable-languages=c,c++ --enable-threads=posix --enable-multilib --enable-c99 --enable-long-long --enable-symvers=gnu --enable-libstdcxx-pch --program-prefix=arm-poky-linux-gnueabi- --without-local-prefix --enable-target-optspace --enable-lto --enable-libssp --disable-bootstrap --disable-libmudflap --with-system-zlib --with-linker-hash-style=gnu --enable-linker-build-id --with-ppl=no --with-cloog=no --enable-checking=release --enable-cheaders=c_global --with-gxx-include-dir=/not/exist/usr/include/c++/4.9.3 --with-build-time-tools=/home/sesa357887/lces-2/build/tmp/sysroots/x86_64-linux/usr/arm-poky-linux-gnueabi/bin --with-sysroot=/not/exist --with-build-sysroot=/home/sesa357887/lces-2/build/tmp/sysroots/rzn1-snarc --enable-poison-system-directories --with-mpfr=/home/sesa357887/lces-2/build/tmp/sysroots/x86_64-nativesdk-pokysdk-linux --with-mpc=/home/sesa357887/lces-2/build/tmp/sysroots/x86_64-nativesdk-pokysdk-linux --enable-nls --with-arch=armv7-a]
  ignore line: [Thread model: posix]
  ignore line: [gcc version 4.9.3 (GCC) ]
  ignore line: [COMPILER_PATH=/opt/poky/2.0.2/sysroots/x86_64-pokysdk-linux/usr/libexec/arm-poky-linux-gnueabi/gcc/arm-poky-linux-gnueabi/4.9.3/:/opt/poky/2.0.2/sysroots/x86_64-pokysdk-linux/usr/libexec/arm-poky-linux-gnueabi/gcc/arm-poky-linux-gnueabi/4.9.3/:/opt/poky/2.0.2/sysroots/x86_64-pokysdk-linux/usr/libexec/arm-poky-linux-gnueabi/gcc/arm-poky-linux-gnueabi/:/opt/poky/2.0.2/sysroots/x86_64-pokysdk-linux/usr/lib/arm-poky-linux-gnueabi/gcc/arm-poky-linux-gnueabi/4.9.3/:/opt/poky/2.0.2/sysroots/x86_64-pokysdk-linux/usr/lib/arm-poky-linux-gnueabi/gcc/arm-poky-linux-gnueabi/]
  ignore line: [LIBRARY_PATH=/opt/poky/2.0.2/sysroots/x86_64-pokysdk-linux/usr/lib/arm-poky-linux-gnueabi/gcc/arm-poky-linux-gnueabi/4.9.3/:/opt/poky/2.0.2/sysroots/cortexa7hf-vfp-vfpv4-d16-poky-linux-gnueabi/lib/:/opt/poky/2.0.2/sysroots/cortexa7hf-vfp-vfpv4-d16-poky-linux-gnueabi/usr/lib/arm-poky-linux-gnueabi/4.9.3/:/opt/poky/2.0.2/sysroots/cortexa7hf-vfp-vfpv4-d16-poky-linux-gnueabi/usr/lib/]
  ignore line: [COLLECT_GCC_OPTIONS='--sysroot=/opt/poky/2.0.2/sysroots/cortexa7hf-vfp-vfpv4-d16-poky-linux-gnueabi' '-march=armv7-a' '-marm' '-mthumb-interwork' '-mfloat-abi=hard' '-mtune=cortex-a7' '-O2' '-pipe' '-g' '-feliminate-unused-debug-types' '-v' '-o' 'cmTC_a3a89' '-rdynamic' '-mtls-dialect=gnu']
  link line: [ /opt/poky/2.0.2/sysroots/x86_64-pokysdk-linux/usr/libexec/arm-poky-linux-gnueabi/gcc/arm-poky-linux-gnueabi/4.9.3/collect2 -plugin /opt/poky/2.0.2/sysroots/x86_64-pokysdk-linux/usr/libexec/arm-poky-linux-gnueabi/gcc/arm-poky-linux-gnueabi/4.9.3/liblto_plugin.so -plugin-opt=/opt/poky/2.0.2/sysroots/x86_64-pokysdk-linux/usr/libexec/arm-poky-linux-gnueabi/gcc/arm-poky-linux-gnueabi/4.9.3/lto-wrapper -plugin-opt=-fresolution=/tmp/ccF0G7WA.res -plugin-opt=-pass-through=-lgcc -plugin-opt=-pass-through=-lgcc_s -plugin-opt=-pass-through=-lc -plugin-opt=-pass-through=-lgcc -plugin-opt=-pass-through=-lgcc_s --sysroot=/opt/poky/2.0.2/sysroots/cortexa7hf-vfp-vfpv4-d16-poky-linux-gnueabi --build-id --eh-frame-hdr --hash-style=gnu -export-dynamic -dynamic-linker /lib/ld-linux-armhf.so.3 -X -m armelf_linux_eabi -o cmTC_a3a89 /opt/poky/2.0.2/sysroots/cortexa7hf-vfp-vfpv4-d16-poky-linux-gnueabi/usr/lib/crt1.o /opt/poky/2.0.2/sysroots/cortexa7hf-vfp-vfpv4-d16-poky-linux-gnueabi/usr/lib/crti.o /opt/poky/2.0.2/sysroots/cortexa7hf-vfp-vfpv4-d16-poky-linux-gnueabi/usr/lib/arm-poky-linux-gnueabi/4.9.3/crtbegin.o -L/opt/poky/2.0.2/sysroots/x86_64-pokysdk-linux/usr/lib/arm-poky-linux-gnueabi/gcc/arm-poky-linux-gnueabi/4.9.3 -L/opt/poky/2.0.2/sysroots/cortexa7hf-vfp-vfpv4-d16-poky-linux-gnueabi/lib -L/opt/poky/2.0.2/sysroots/cortexa7hf-vfp-vfpv4-d16-poky-linux-gnueabi/usr/lib/arm-poky-linux-gnueabi/4.9.3 -L/opt/poky/2.0.2/sysroots/cortexa7hf-vfp-vfpv4-d16-poky-linux-gnueabi/usr/lib -O1 --hash-style=gnu --as-needed CMakeFiles/cmTC_a3a89.dir/CMakeCCompilerABI.c.o -lgcc --as-needed -lgcc_s --no-as-needed -lc -lgcc --as-needed -lgcc_s --no-as-needed /opt/poky/2.0.2/sysroots/cortexa7hf-vfp-vfpv4-d16-poky-linux-gnueabi/usr/lib/arm-poky-linux-gnueabi/4.9.3/crtend.o /opt/poky/2.0.2/sysroots/cortexa7hf-vfp-vfpv4-d16-poky-linux-gnueabi/usr/lib/crtn.o]
    arg [/opt/poky/2.0.2/sysroots/x86_64-pokysdk-linux/usr/libexec/arm-poky-linux-gnueabi/gcc/arm-poky-linux-gnueabi/4.9.3/collect2] ==> ignore
    arg [-plugin] ==> ignore
    arg [/opt/poky/2.0.2/sysroots/x86_64-pokysdk-linux/usr/libexec/arm-poky-linux-gnueabi/gcc/arm-poky-linux-gnueabi/4.9.3/liblto_plugin.so] ==> ignore
    arg [-plugin-opt=/opt/poky/2.0.2/sysroots/x86_64-pokysdk-linux/usr/libexec/arm-poky-linux-gnueabi/gcc/arm-poky-linux-gnueabi/4.9.3/lto-wrapper] ==> ignore
    arg [-plugin-opt=-fresolution=/tmp/ccF0G7WA.res] ==> ignore
    arg [-plugin-opt=-pass-through=-lgcc] ==> ignore
    arg [-plugin-opt=-pass-through=-lgcc_s] ==> ignore
    arg [-plugin-opt=-pass-through=-lc] ==> ignore
    arg [-plugin-opt=-pass-through=-lgcc] ==> ignore
    arg [-plugin-opt=-pass-through=-lgcc_s] ==> ignore
    arg [--sysroot=/opt/poky/2.0.2/sysroots/cortexa7hf-vfp-vfpv4-d16-poky-linux-gnueabi] ==> ignore
    arg [--build-id] ==> ignore
    arg [--eh-frame-hdr] ==> ignore
    arg [--hash-style=gnu] ==> ignore
    arg [-export-dynamic] ==> ignore
    arg [-dynamic-linker] ==> ignore
    arg [/lib/ld-linux-armhf.so.3] ==> ignore
    arg [-X] ==> ignore
    arg [-m] ==> ignore
    arg [armelf_linux_eabi] ==> ignore
    arg [-o] ==> ignore
    arg [cmTC_a3a89] ==> ignore
    arg [/opt/poky/2.0.2/sysroots/cortexa7hf-vfp-vfpv4-d16-poky-linux-gnueabi/usr/lib/crt1.o] ==> ignore
    arg [/opt/poky/2.0.2/sysroots/cortexa7hf-vfp-vfpv4-d16-poky-linux-gnueabi/usr/lib/crti.o] ==> ignore
    arg [/opt/poky/2.0.2/sysroots/cortexa7hf-vfp-vfpv4-d16-poky-linux-gnueabi/usr/lib/arm-poky-linux-gnueabi/4.9.3/crtbegin.o] ==> ignore
    arg [-L/opt/poky/2.0.2/sysroots/x86_64-pokysdk-linux/usr/lib/arm-poky-linux-gnueabi/gcc/arm-poky-linux-gnueabi/4.9.3] ==> dir [/opt/poky/2.0.2/sysroots/x86_64-pokysdk-linux/usr/lib/arm-poky-linux-gnueabi/gcc/arm-poky-linux-gnueabi/4.9.3]
    arg [-L/opt/poky/2.0.2/sysroots/cortexa7hf-vfp-vfpv4-d16-poky-linux-gnueabi/lib] ==> dir [/opt/poky/2.0.2/sysroots/cortexa7hf-vfp-vfpv4-d16-poky-linux-gnueabi/lib]
    arg [-L/opt/poky/2.0.2/sysroots/cortexa7hf-vfp-vfpv4-d16-poky-linux-gnueabi/usr/lib/arm-poky-linux-gnueabi/4.9.3] ==> dir [/opt/poky/2.0.2/sysroots/cortexa7hf-vfp-vfpv4-d16-poky-linux-gnueabi/usr/lib/arm-poky-linux-gnueabi/4.9.3]
    arg [-L/opt/poky/2.0.2/sysroots/cortexa7hf-vfp-vfpv4-d16-poky-linux-gnueabi/usr/lib] ==> dir [/opt/poky/2.0.2/sysroots/cortexa7hf-vfp-vfpv4-d16-poky-linux-gnueabi/usr/lib]
    arg [-O1] ==> ignore
    arg [--hash-style=gnu] ==> ignore
    arg [--as-needed] ==> ignore
    arg [CMakeFiles/cmTC_a3a89.dir/CMakeCCompilerABI.c.o] ==> ignore
    arg [-lgcc] ==> lib [gcc]
    arg [--as-needed] ==> ignore
    arg [-lgcc_s] ==> lib [gcc_s]
    arg [--no-as-needed] ==> ignore
    arg [-lc] ==> lib [c]
    arg [-lgcc] ==> lib [gcc]
    arg [--as-needed] ==> ignore
    arg [-lgcc_s] ==> lib [gcc_s]
    arg [--no-as-needed] ==> ignore
    arg [/opt/poky/2.0.2/sysroots/cortexa7hf-vfp-vfpv4-d16-poky-linux-gnueabi/usr/lib/arm-poky-linux-gnueabi/4.9.3/crtend.o] ==> ignore
    arg [/opt/poky/2.0.2/sysroots/cortexa7hf-vfp-vfpv4-d16-poky-linux-gnueabi/usr/lib/crtn.o] ==> ignore
  remove lib [gcc]
  remove lib [gcc_s]
  remove lib [gcc]
  remove lib [gcc_s]
  collapse library dir [/opt/poky/2.0.2/sysroots/x86_64-pokysdk-linux/usr/lib/arm-poky-linux-gnueabi/gcc/arm-poky-linux-gnueabi/4.9.3] ==> [/opt/poky/2.0.2/sysroots/x86_64-pokysdk-linux/usr/lib/arm-poky-linux-gnueabi/gcc/arm-poky-linux-gnueabi/4.9.3]
  collapse library dir [/opt/poky/2.0.2/sysroots/cortexa7hf-vfp-vfpv4-d16-poky-linux-gnueabi/lib] ==> [/opt/poky/2.0.2/sysroots/cortexa7hf-vfp-vfpv4-d16-poky-linux-gnueabi/lib]
  collapse library dir [/opt/poky/2.0.2/sysroots/cortexa7hf-vfp-vfpv4-d16-poky-linux-gnueabi/usr/lib/arm-poky-linux-gnueabi/4.9.3] ==> [/opt/poky/2.0.2/sysroots/cortexa7hf-vfp-vfpv4-d16-poky-linux-gnueabi/usr/lib/arm-poky-linux-gnueabi/4.9.3]
  collapse library dir [/opt/poky/2.0.2/sysroots/cortexa7hf-vfp-vfpv4-d16-poky-linux-gnueabi/usr/lib] ==> [/opt/poky/2.0.2/sysroots/cortexa7hf-vfp-vfpv4-d16-poky-linux-gnueabi/usr/lib]
  implicit libs: [c]
  implicit dirs: [/opt/poky/2.0.2/sysroots/x86_64-pokysdk-linux/usr/lib/arm-poky-linux-gnueabi/gcc/arm-poky-linux-gnueabi/4.9.3;/opt/poky/2.0.2/sysroots/cortexa7hf-vfp-vfpv4-d16-poky-linux-gnueabi/lib;/opt/poky/2.0.2/sysroots/cortexa7hf-vfp-vfpv4-d16-poky-linux-gnueabi/usr/lib/arm-poky-linux-gnueabi/4.9.3;/opt/poky/2.0.2/sysroots/cortexa7hf-vfp-vfpv4-d16-poky-linux-gnueabi/usr/lib]
  implicit fwks: []




Detecting C [-std=c11] compiler features compiled with the following output:
Change Dir: /media/sf_vmshare/opc-ua/MemoryTestServer/build_LCES2/CMakeFiles/CMakeTmp

Run Build Command:"/usr/bin/make" "cmTC_bcdf9/fast"
make: Warning: File 'Makefile' has modification time 0,082 s in the future
/usr/bin/make -f CMakeFiles/cmTC_bcdf9.dir/build.make CMakeFiles/cmTC_bcdf9.dir/build
make[1]: Entering directory '/media/sf_vmshare/opc-ua/MemoryTestServer/build_LCES2/CMakeFiles/CMakeTmp'
make[1]: Warning: File 'CMakeFiles/cmTC_bcdf9.dir/progress.make' has modification time 0,18 s in the future
Building C object CMakeFiles/cmTC_bcdf9.dir/feature_tests.c.o
/opt/poky/2.0.2/sysroots/x86_64-pokysdk-linux/usr/bin/arm-poky-linux-gnueabi/arm-poky-linux-gnueabi-gcc   -march=armv7-a -marm  -mthumb-interwork -mfloat-abi=hard -mtune=cortex-a7 --sysroot=/opt/poky/2.0.2/sysroots/cortexa7hf-vfp-vfpv4-d16-poky-linux-gnueabi   -O2 -pipe -g -feliminate-unused-debug-types     -std=c11 -o CMakeFiles/cmTC_bcdf9.dir/feature_tests.c.o   -c /media/sf_vmshare/opc-ua/MemoryTestServer/build_LCES2/CMakeFiles/feature_tests.c
Linking C executable cmTC_bcdf9
/usr/bin/cmake -E cmake_link_script CMakeFiles/cmTC_bcdf9.dir/link.txt --verbose=1
/opt/poky/2.0.2/sysroots/x86_64-pokysdk-linux/usr/bin/arm-poky-linux-gnueabi/arm-poky-linux-gnueabi-gcc   -march=armv7-a -marm  -mthumb-interwork -mfloat-abi=hard -mtune=cortex-a7 --sysroot=/opt/poky/2.0.2/sysroots/cortexa7hf-vfp-vfpv4-d16-poky-linux-gnueabi  -O2 -pipe -g -feliminate-unused-debug-types     -Wl,-O1 -Wl,--hash-style=gnu -Wl,--as-needed  CMakeFiles/cmTC_bcdf9.dir/feature_tests.c.o  -o cmTC_bcdf9 -rdynamic 
make[1]: warning:  Clock skew detected.  Your build may be incomplete.
make[1]: Leaving directory '/media/sf_vmshare/opc-ua/MemoryTestServer/build_LCES2/CMakeFiles/CMakeTmp'
make: warning:  Clock skew detected.  Your build may be incomplete.


    Feature record: C_FEATURE:1c_function_prototypes
    Feature record: C_FEATURE:1c_restrict
    Feature record: C_FEATURE:1c_static_assert
    Feature record: C_FEATURE:1c_variadic_macros


Detecting C [-std=c99] compiler features compiled with the following output:
Change Dir: /media/sf_vmshare/opc-ua/MemoryTestServer/build_LCES2/CMakeFiles/CMakeTmp

Run Build Command:"/usr/bin/make" "cmTC_346e1/fast"
make: Warning: File 'Makefile' has modification time 0,17 s in the future
/usr/bin/make -f CMakeFiles/cmTC_346e1.dir/build.make CMakeFiles/cmTC_346e1.dir/build
make[1]: Entering directory '/media/sf_vmshare/opc-ua/MemoryTestServer/build_LCES2/CMakeFiles/CMakeTmp'
make[1]: Warning: File 'CMakeFiles/cmTC_346e1.dir/flags.make' has modification time 0,12 s in the future
Building C object CMakeFiles/cmTC_346e1.dir/feature_tests.c.o
/opt/poky/2.0.2/sysroots/x86_64-pokysdk-linux/usr/bin/arm-poky-linux-gnueabi/arm-poky-linux-gnueabi-gcc   -march=armv7-a -marm  -mthumb-interwork -mfloat-abi=hard -mtune=cortex-a7 --sysroot=/opt/poky/2.0.2/sysroots/cortexa7hf-vfp-vfpv4-d16-poky-linux-gnueabi   -O2 -pipe -g -feliminate-unused-debug-types     -std=c99 -o CMakeFiles/cmTC_346e1.dir/feature_tests.c.o   -c /media/sf_vmshare/opc-ua/MemoryTestServer/build_LCES2/CMakeFiles/feature_tests.c
Linking C executable cmTC_346e1
/usr/bin/cmake -E cmake_link_script CMakeFiles/cmTC_346e1.dir/link.txt --verbose=1
/opt/poky/2.0.2/sysroots/x86_64-pokysdk-linux/usr/bin/arm-poky-linux-gnueabi/arm-poky-linux-gnueabi-gcc   -march=armv7-a -marm  -mthumb-interwork -mfloat-abi=hard -mtune=cortex-a7 --sysroot=/opt/poky/2.0.2/sysroots/cortexa7hf-vfp-vfpv4-d16-poky-linux-gnueabi  -O2 -pipe -g -feliminate-unused-debug-types     -Wl,-O1 -Wl,--hash-style=gnu -Wl,--as-needed  CMakeFiles/cmTC_346e1.dir/feature_tests.c.o  -o cmTC_346e1 -rdynamic 
make[1]: warning:  Clock skew detected.  Your build may be incomplete.
make[1]: Leaving directory '/media/sf_vmshare/opc-ua/MemoryTestServer/build_LCES2/CMakeFiles/CMakeTmp'
make: warning:  Clock skew detected.  Your build may be incomplete.


    Feature record: C_FEATURE:1c_function_prototypes
    Feature record: C_FEATURE:1c_restrict
    Feature record: C_FEATURE:0c_static_assert
    Feature record: C_FEATURE:1c_variadic_macros


Detecting C [-std=c90] compiler features compiled with the following output:
Change Dir: /media/sf_vmshare/opc-ua/MemoryTestServer/build_LCES2/CMakeFiles/CMakeTmp

Run Build Command:"/usr/bin/make" "cmTC_4c16f/fast"
make: Warning: File 'Makefile' has modification time 0,24 s in the future
/usr/bin/make -f CMakeFiles/cmTC_4c16f.dir/build.make CMakeFiles/cmTC_4c16f.dir/build
make[1]: Entering directory '/media/sf_vmshare/opc-ua/MemoryTestServer/build_LCES2/CMakeFiles/CMakeTmp'
make[1]: Warning: File 'CMakeFiles/cmTC_4c16f.dir/flags.make' has modification time 0,19 s in the future
Building C object CMakeFiles/cmTC_4c16f.dir/feature_tests.c.o
/opt/poky/2.0.2/sysroots/x86_64-pokysdk-linux/usr/bin/arm-poky-linux-gnueabi/arm-poky-linux-gnueabi-gcc   -march=armv7-a -marm  -mthumb-interwork -mfloat-abi=hard -mtune=cortex-a7 --sysroot=/opt/poky/2.0.2/sysroots/cortexa7hf-vfp-vfpv4-d16-poky-linux-gnueabi   -O2 -pipe -g -feliminate-unused-debug-types     -std=c90 -o CMakeFiles/cmTC_4c16f.dir/feature_tests.c.o   -c /media/sf_vmshare/opc-ua/MemoryTestServer/build_LCES2/CMakeFiles/feature_tests.c
Linking C executable cmTC_4c16f
/usr/bin/cmake -E cmake_link_script CMakeFiles/cmTC_4c16f.dir/link.txt --verbose=1
/opt/poky/2.0.2/sysroots/x86_64-pokysdk-linux/usr/bin/arm-poky-linux-gnueabi/arm-poky-linux-gnueabi-gcc   -march=armv7-a -marm  -mthumb-interwork -mfloat-abi=hard -mtune=cortex-a7 --sysroot=/opt/poky/2.0.2/sysroots/cortexa7hf-vfp-vfpv4-d16-poky-linux-gnueabi  -O2 -pipe -g -feliminate-unused-debug-types     -Wl,-O1 -Wl,--hash-style=gnu -Wl,--as-needed  CMakeFiles/cmTC_4c16f.dir/feature_tests.c.o  -o cmTC_4c16f -rdynamic 
make[1]: warning:  Clock skew detected.  Your build may be incomplete.
make[1]: Leaving directory '/media/sf_vmshare/opc-ua/MemoryTestServer/build_LCES2/CMakeFiles/CMakeTmp'
make: warning:  Clock skew detected.  Your build may be incomplete.


    Feature record: C_FEATURE:1c_function_prototypes
    Feature record: C_FEATURE:0c_restrict
    Feature record: C_FEATURE:0c_static_assert
    Feature record: C_FEATURE:0c_variadic_macros
