[
{
  "directory": "/media/sf_vmshare/opc-ua/SubscriptionTestServer/build_LCES2",
  "command": "/opt/poky/2.0.2/sysroots/x86_64-pokysdk-linux/usr/bin/arm-poky-linux-gnueabi/arm-poky-linux-gnueabi-gcc   -march=armv7-a -marm  -mthumb-interwork -mfloat-abi=hard -mtune=cortex-a7 --sysroot=/opt/poky/2.0.2/sysroots/cortexa7hf-vfp-vfpv4-d16-poky-linux-gnueabi -DUA_LINUX -I/media/sf_vmshare/opc-ua/HPSDK_LCES2/include -I/media/sf_vmshare/opc-ua/HPSDK_LCES2/include/platform/linux -I/media/sf_vmshare/opc-ua/SubscriptionTestServer/build_LCES2 -I/opt/poky/2.0.2/sysroots/cortexa7hf-vfp-vfpv4-d16-poky-linux-gnueabi/usr/include/openssl   -O2 -pipe -g -feliminate-unused-debug-types  -g   -o CMakeFiles/uaserver_test_model.dir/server_main.c.o   -c /media/sf_vmshare/opc-ua/SubscriptionTestServer/server_main.c",
  "file": "/media/sf_vmshare/opc-ua/SubscriptionTestServer/server_main.c"
},
{
  "directory": "/media/sf_vmshare/opc-ua/SubscriptionTestServer/build_LCES2",
  "command": "/opt/poky/2.0.2/sysroots/x86_64-pokysdk-linux/usr/bin/arm-poky-linux-gnueabi/arm-poky-linux-gnueabi-gcc   -march=armv7-a -marm  -mthumb-interwork -mfloat-abi=hard -mtune=cortex-a7 --sysroot=/opt/poky/2.0.2/sysroots/cortexa7hf-vfp-vfpv4-d16-poky-linux-gnueabi -DUA_LINUX -I/media/sf_vmshare/opc-ua/HPSDK_LCES2/include -I/media/sf_vmshare/opc-ua/HPSDK_LCES2/include/platform/linux -I/media/sf_vmshare/opc-ua/SubscriptionTestServer/build_LCES2 -I/opt/poky/2.0.2/sysroots/cortexa7hf-vfp-vfpv4-d16-poky-linux-gnueabi/usr/include/openssl   -O2 -pipe -g -feliminate-unused-debug-types  -g   -o CMakeFiles/uaserver_test_model.dir/custom_provider.c.o   -c /media/sf_vmshare/opc-ua/SubscriptionTestServer/custom_provider.c",
  "file": "/media/sf_vmshare/opc-ua/SubscriptionTestServer/custom_provider.c"
},
{
  "directory": "/media/sf_vmshare/opc-ua/SubscriptionTestServer/build_LCES2",
  "command": "/opt/poky/2.0.2/sysroots/x86_64-pokysdk-linux/usr/bin/arm-poky-linux-gnueabi/arm-poky-linux-gnueabi-gcc   -march=armv7-a -marm  -mthumb-interwork -mfloat-abi=hard -mtune=cortex-a7 --sysroot=/opt/poky/2.0.2/sysroots/cortexa7hf-vfp-vfpv4-d16-poky-linux-gnueabi -DUA_LINUX -I/media/sf_vmshare/opc-ua/HPSDK_LCES2/include -I/media/sf_vmshare/opc-ua/HPSDK_LCES2/include/platform/linux -I/media/sf_vmshare/opc-ua/SubscriptionTestServer/build_LCES2 -I/opt/poky/2.0.2/sysroots/cortexa7hf-vfp-vfpv4-d16-poky-linux-gnueabi/usr/include/openssl   -O2 -pipe -g -feliminate-unused-debug-types  -g   -o CMakeFiles/uaserver_test_model.dir/custom_provider_store.c.o   -c /media/sf_vmshare/opc-ua/SubscriptionTestServer/custom_provider_store.c",
  "file": "/media/sf_vmshare/opc-ua/SubscriptionTestServer/custom_provider_store.c"
},
{
  "directory": "/media/sf_vmshare/opc-ua/SubscriptionTestServer/build_LCES2",
  "command": "/opt/poky/2.0.2/sysroots/x86_64-pokysdk-linux/usr/bin/arm-poky-linux-gnueabi/arm-poky-linux-gnueabi-gcc   -march=armv7-a -marm  -mthumb-interwork -mfloat-abi=hard -mtune=cortex-a7 --sysroot=/opt/poky/2.0.2/sysroots/cortexa7hf-vfp-vfpv4-d16-poky-linux-gnueabi -DUA_LINUX -I/media/sf_vmshare/opc-ua/HPSDK_LCES2/include -I/media/sf_vmshare/opc-ua/HPSDK_LCES2/include/platform/linux -I/media/sf_vmshare/opc-ua/SubscriptionTestServer/build_LCES2 -I/opt/poky/2.0.2/sysroots/cortexa7hf-vfp-vfpv4-d16-poky-linux-gnueabi/usr/include/openssl   -O2 -pipe -g -feliminate-unused-debug-types  -g   -o CMakeFiles/uaserver_test_model.dir/custom_provider_nodes.c.o   -c /media/sf_vmshare/opc-ua/SubscriptionTestServer/custom_provider_nodes.c",
  "file": "/media/sf_vmshare/opc-ua/SubscriptionTestServer/custom_provider_nodes.c"
}
]